kasino2018x.info
animalfilms.kinogo-hd.icu
www.paramparcq.video.az
kinoxyz.xyz
tor.sg
online.medokey.ltd
maxmbetplayluck.top
siloviki.press
spravka-24.pro
ukk24.shop
s7.skladchik.ws
turkish-tv-series.zhd.life
openssource.info
www.maramarathon.win
prostitutkibarnauladosug.info
othegrs.top
vzlomhack.org
gambledor.info
www.tabakur77.top
s1357455626.top-tracker.org
imho24.info
www.suruga-ya.jp
grimm-serial.gov-ceb-t.top
aff1xstavka.top
movies-hd.pp.ua
rotacmbetcase.site
gambledor.org
bot.filmhd1080.site
mirror37.graniru.info
filmshouse.lostfilm-hd-350.site
sisek.club
refpahetsl.top
taxi-24.eu
edem.love
rutor.unblocked.how
q.zfilm-hd-1149.online
www.bbsports.today
xn--d1a.hdhouse.club
newmbetplayluck.top
kinohod.zfilm-hd1.cyou
mosttbetcl4.xyz
xporno.vip
24film.zhd.life
nomerorg.club
xn--80aikhbrhr.xn--j1amh
comicsporno.com.ve
newvulkan.club
mirror8.graniru.info
freeproxy.win
www.ispovednik.com.
semyanich.life
mahachkala.specprava.top
272003.okah.top
kompromat1.org
spravkashop.info
mostbbat65.xyz
xn--f1a.hdreactor.club
rotateradioplay.win
www.kurtlaer-vadisi-pusu.video.az
sven24.biz.klad24.shop
xn--o1a8bf.hdreactor.club
6.thro.bz
odessa.co.video.az
refpaikllb.top
vulcanbets.vip
six.go2me.top
mirror.mirrorolimp1.xyz
refpansciq.top
refpaqavvl.top
home-porno.biz
a12.hdreactor.club
elista.prava.monster
www.gunesi-beklerkjen.video.az
club-vulkan3.co
eldorado777.bet
www.onlinecasinoreports.ca
playbester.space
refpapayue.top
sdnmoviess.biz
rotatembetmove.win
www.tr7ue-detective.video.az
72.
prostitutkapitera.info
unikino.zhd.life
casinokbs.xyz
hd-pornohype.zfilm-720.club
refpackeeb.top
socar.video.az
www.ganjalive.org
tv2.bobfilm1.site
refpaktxcw.top
torrent-sd.site
epravda.life
bonus200win.info
mirror373.graniru.info
mostbets.xyz
rotatecitizenplay.win
hd-kinokub.lamafilm.top
lissaboncasino.info
www.intertops.eu
q.zfilm-hd-1660.online
www.bwin.be
shop.login.hdreactor.club
nontobacco.space
toparbitrazh.website
y2.zona.plus
center-club.biz
refpavezxg.top
63.dosug.plus
www.hizb-turkiye.org
blacknet.ws
lu.ma
kinotan.zfilm-hd-731.club
nextbrand.vip
antiplomba.club
groznyj.100
irfis.site
2v.hdreactor.club
smartsmoker.store
q.zagonka-2423.site
www.xxx.video.az
1080.lamafilm.top
s.kupitdiplomvyshee.club
blog.demo.3.hdreactor.club
vkurse.info
paylan.com.tr
www.rufilm.site
www.auth-ns.hdreactor.in
refpawmnbl.top
www.merhamwt.video.az
bt4g.unblockedproxy.biz
refpadjztz.top
developers.hdreactor.club
miniteens.site
arhivach.cf
xn--httpv6-2ofas2g9c.hdreactor.club
kazinopingvin.info
action.news
sbd954.hdreactor.club
www.med-spravci.co
www.ssdiaqpora.video.az
moosttbetxcl50.xyz
b0449b27dc98caa7ba.c2ef25.a2341e99d0a2f2982f.xyz
kino2020.fun
shop.ganjaseeds.ltd
rotatemediaturn.win
mostbevm.xyz
sochifeya.pro
mbethealplay.top
rhythmo.video.az
rotatemediafirst.win
m16.kinocraft.co
tgkoolxrpybhtt5y.onion.to
igra-prestolov.live
telegu.one
mostbbat4.xyz
poker888.win
refparmiid.top
www.zenitbet173.win
xn--g1a1a.hdreactor.club
veronazory.eu
bezrezepta-lyricu.skynell.biz
vzlomok.biz
www.downtownbingo.eu
mosstbn.xyz
h0st.pro
efforthk.top
mbetrotateloss.top
lamafilm.hd-lostfilm.site
xn--d1accrufw6e.xn--80adxhks
nen.ai
refpavswzn.top
refpairubi.top
kinoora.website
refpabzzjy.top
cdn.tvmovies.in
mosttbeet048.xyz
pornobomba.co
alregady.top
www.hakikat-tv.video.az
exkinoray.site
www.hemo.video.az
avtomaty.win
sbd961.hdreactor.club
joyfilm.site
www.slotsplus.eu
nvspc.us
b2.boominfo.org
hd-interny.zfilm-russia.cyou
inprod.pl
magazin-1.biz.24klad.shop
mbetrotatepick.top
blog.shop.hdreactor.in
advertology.baskino-1359.site
gazgolder-777.biz
mostbet777bon11us.xyz
zerokazino.info
www.888sport.es
mosttbetfann8.xyz
www.gumuws.video.az
www.miriprava.org
rotatepartyplay.win
b.kinosex.info
stavka-na-sport.site
refpabfwxm.top
www.kropyva.ch
anonymslotz.org
bets06.site
casino-2019-01-25.info
kazinoriko.info
refpadtqzm.top
blog.com.hdreactor.in
trtorrent.info
karusel-tv.zagonka-492.site
high-stone-forum.biz
mostopsbetr65c.xyz
vulkan-bet.live
cp.hdreactor.in
slidemediaplay.win
refpaotyii.top
x-film.video
w11w.hdreactor.club
www.artdekor.az
resmedia.vn
www.mynewmbet.win
xn--e1ajbcdbmablzd.xn--p1ai
7512.tvmovies.in
b.cheki-rf.club
nudgemediaplay.win
www.krik-sovi.video.az
www.wayaway.co
refpafdlwg.top
kinokub.lordsfilms-1080.top
wingamble.bz
mobile.hdreactor.club
v19.hdreactor.club
demo.ssi.hdreactor.club
refpaioger.top
refpahfyis.top
hd-fixiki.newserial-777.site
films2021.us
griffiny.kinokrad-hd.top
store.https-www.hdreactor.in
refpahpega.top
blog.magento.collector.hdreactor.in
newsfi.eu
samara.kupit-snus.site
refpapboqh.top
hd-bluray720.kinokrad-hd.cyou
pma.33.hdreactor.in
sewciokebab.pl
rotateanyoneplay.win
mysql.eh.hdreactor.in
hd-kino-o-voine.zfilm-1080.cyou
mygf.al
getringtone.club
refpaibqwm.top
market.hdreactor.in
hd-100xyev.lamafilm.top
rotacmbetskill.site
petshopcookiedog.cl
store.teams.hdreactor.in
hd7.kinoshki1080.club
v-anal.biz
hd-zfilm-hd.zfilm-hd.site
sprut.video.az
sbd280.hdreactor.club
www.sporthbox.video.az
realtennisi.tj
rotatemediaprogram.win
store.v10.hdreactor.club
720hdhd-lostfilm.hd-lostfilm.site
news.com.az
m.trending.network
1plus1tv.gov-bkt-a.top
www.gossipslots.eu
mosttbeet040.xyz
www.danabol.press
xchange.is
kino-save.club
rockrecoveryed.org
mirror169.graniru.info
dev.crm.hdreactor.club
old.31.hdreactor.in
casino24d.info
rotaambetwin.top
kinomur.xyz
www.rusianvulcan.org
simpsons.porn
rotaembetget.site
casino-vulcan.mobi
mosttbet026.xyz
rotabmbetbegin.top
kupit-snus-moskva.site
ds138.v-s.mobi
sp.hdreactor.club
zfilm-720.zfilm-hd.gay
www.doglife.video.az
www.marathonstay.win
ourmbetplaywin.top
mewpa.top
goldencomics.space
igrakazino.info
refinancesandiego.org
rotatembettry.win
mbetrotatemiss.top
kinosimka.theproxy.how
mbetrotategame.top
cheks.space
www.parsmparca.video.az
volgograd.kupit-snus.site
xn----8sbekc3cipe1a.xn--p1acf
store.6.hdreactor.club
refpaczvqd.top
pornushka24.info
eh.hdreactor.in
mosttbetcl40.xyz
intim-x.in
thepiratebay.net.co
api1622466917.tobaco.ws
refpaaouhp.top
upcasinozabazino777.info
hd-kinopik.zfilm-1080.club
www.marathonawesome.win
444casinosssr.info
mirror.mirrorolimp3.online
twelve.tstore.or.hdreactor.in
zhytely.info
book.dmm.co.jp
test.hdreactor.in
mostbatgt.xyz
mostbet777b60onus.xyz
magento2.hdreactor.club
mirror555.graniru.info
blog.old.2019.hdreactor.in
usenet.hdreactor.in
refpaxbzqm.top
vid1568641935285.tehranvd.biz
www.vegasplay.eu
mosttbeet023.xyz
s1.hdlord.site
rotacmbetmean.site
upcasinokztazino.info
mystream.to
arbitrazhparimatch.online
prostitutki-krasnodara.info
365info.kz
mostbet.agency
seedbanda.top
downtonabbeyserial.zhd.life
gorset-ortopedyczny.pl
fandosuh.club
mbetswingplay.top
refpaerhlp.top
28.hdreactor.in
mostopsbetr40c.xyz
vkplay.org
rasta72-biz.gdur.city
vladivostok10.24h.sex
superslot777u.info
21.hdreactor.in
kanobu.zagonka-952.site
www.dndnha.work
www.az.hdreactor.club
o69iay0p.hdreactor.in
onlinebash.xyz
gta5.lamafilm-hd.buzz
refpaoemsa.top
7serialov.720-hd.icu
lordfilm-638.site
hdvik.club
www.visilntv.video.az
24film.hd-lostfilm.site
3vulkan.club
mostbatdt.xyz
rotaembetbee.site
multiki.zfilm-hd-666.online
nijinijiero.blog.jp
dev.11.hdreactor.club
lostfilm.lostsfilms.co
3r.taxaccel.org
rotatemediaretire.win
rotatelawyerplay.win
telega.at
rotacmbetsingle.site
refpawnblk.top
embedy.io
kinopro.monster
h.darsex2.club
rotatemediagoon.win
toptorrent.uz
hd-tayga27.zfilm-hd777.monster
mosttbetxcl18.xyz
img.hdreactor.club
www.baskino1.top
forum.umora.biz
rotagmbetbrass.site
msk.prostitutki.xxx
rotabmbetwatch.top
mirror102.graniru.info
rotatemediatime.win
texosmotr-nedorogo.site
vulkan24.club
rotateoddbanner.win
nudiplanetblog.site
h99.x-film.top
fanat1k.gov-bac-t.top
rotatemediasix.win
www.gumyus.video.az
kazinorating.info
mirror115.graniru.info
kzsel.info
www.piva-dostavka-moskva2.site
refpazzbyn.top
john-mass.shop
dev.1c.hdreactor.club
lordfilms-s.zfilm-hd-408.online
s94871870.newtorrent.rip
sterckx.nl
kinogo.unblocked.surf
multbratva-biz.awse.city
blog.nityapi03.hdreactor.in
upcasinozjxvulkanclub.info
mirror602.graniru.info
vulcan-777.club
kinozal.hdrezka-1918.site
ww2.kino-krad.fun
medsprafka-samara.top
hd.film-tv.club
top1kazino.info
www.true-dsetective.video.az
azinoqlbupcasino.info
doramy.zfilm-hd1.icu
moosttbet055.xyz
betolimp.kz
url.ie
duga.jp
bet5555.top
dev.api.hdreactor.club
mbetrotatehit.top
www.kstati.top
win13.go2me.top
zfilm-hd.shop
refpavmbtr.top
refpaxvntu.site
brandbase.club
make.win-now.co
www.bet.co.za
refpaylhitip.top
refpajkuwg.top
staging.phpmyadmin.hdreactor.in
mbetrotatewatch.top
formula55.kg
turkish-tv-series.zfilm-hd-2230.online
tambov2.dosug.store
rotaambetsing.top
api1623989183.tobaco.ws
www.gotomarathon.win
rotatemediacreate.win
mostbetprilend44.xyz
refpadpmk.top
mossstba5tlt.xyz
store.01.hdreactor.club
refpadafcb.top
httpsswww.hdreactor.in
osago-blank.co.
1-coldfilm.hdkino.biz
mosttbetfanv1.xyz
www.erotv.biz
6h.hdreactor.club
toptoptopprofit.xyz
a1iy4akxid.1stgoto.url.access.bkfind.top
bobsburgers.lordfilm-2833.site
hot.24video.click
krankazino.info
mizugadro.mydns.jp
allrightcasino.club
filmy.onlayn.club
hd-love.zfilm-hd-731.cyou
m5.imhentai.xxx
sex1.sexchita.club
smotri-online.biz
kazino-gusar.top
www.mbetcoolrotate.win
refpatipva.site
refpasqize.top
hitmbetplayluck.top
hd-megogo.zfilm-1080.cyou
online-720.zfilm-hd777.monster
hdrezka.ru.video.az
semyanich.shop
www.v10.hdreactor.club
www.alwaysvegas.eu
rotabmbetdebut.top
armembassy.in.ua
viralhub.video
1080-hd1.hd-lostfilm.site
www.pervanelerin-reqsi.video.az
flibusta.is
casinoargo.club
blog.a2.hdhouse.club
tvz.im
vinnitsa.top
www.betsbc-wase.space
wulkanstars.top
name.take-now.co
moneymd.club
rotatemediatrail.win
dev.cs.hdreactor.club
refpabipib.top
lord-filmzz5.lordfilm.band
zetflix.zagonka-1368.site
4board.ksivi.bz
hd-mori-cinema.zfilm-hd777.monster
movies.az
www.dolya.org
triometal.cz
awesometraff.website
www.loveit.pk
air.pm-629.info
sexotula.mobi
vse-narodu.club
zetflix.zfilm-hd-1870.online
rotatemediafieldgoal.win
qrd1103378ca.general.site.bkfind.club
legaldiplom.co
1080-hd-hd.2021-film.site
m.ukcasinoclub.eu
refpaseovb.top
kinocraft.pw
siedlce.flagma.pl
jet9.casino
www.sbmarathon.win
luxdezjnop7f2udi.onion.to
klub-vulkan.co
best.casinoru.site
kanna-biz.info
xn---24-6cdygld0b8acu.xn--p1ai
slotmachinecas.info
rotabmbetcareer.top
042103.torbaza.club
direct.hdreactor.club
www.ndashoylebirgecerzamanki.video.az
sss.xxx
faporn.love
vsenarodu.club
www.shen.video.az
moosttbetxcl7.xyz
odia.hd.video.az
magento2.11.hdreactor.club
urbanbees.eu
rotateagencyplay.win
animal-farma.shop
100putan.club
spravki-na.club
bonusbanner.website
mossstbetet.xyz
refparwhrl.top
avatar.hd-lostfilm.site
samara.mifepristone-apteka.info
hd-spbtvonline33.hd-zfilm.cyou
mirror61.graniru.info
mp3-tut.click
mbetrotatehave.top
mosttbet045.xyz
diploms-house.top
legalrc.ws
auibetas.xyz
www.08.video.az
staging.cpanel.hdreactor.in
athleticpharma.website
mirror232.graniru.info
vipfilm.click
gipoteza.top
miponline.in
brandbase.sale
kinogos.site
intl5community.hdreactor.in
mosstbmg.xyz
emtrek.org
goal.game-bonuses.club
sip.hdreactor.club
pjbsvv7.hdreactor.in
refpakkooa.top
hentaitube.video
sellerkz.biz
inold.scheduler.hdreactor.in
store.33.hdreactor.in
statuskvo.by
starserial.zagonka-841.site
broclub.biz
11.hdhouse.club
ru.hdrezka.info
pornolavka.club
www.mye.video.az
b1.x-film.top
xn--74-vlcpjaqmq.xn--p1ai
refpaeuhlu.top
1sprawcy.co
www.bbsports.site
lostfilm-online.zfilm-kazakhstan.cyou
com.hdreactor.in
farma-sport.biz
www.prbezposhady.top
kodvkazino.info
demo.hdreactor.club
rutor.ch
xn----btb8ajhbb5h.xn--p1ai
kazinoposle.info
azps.az
www.oylebirgecerzamanki.video.az
xhdporno.org
hd-balbembi.zfilm-hd-2679.cyou
www.mbetyesbig.win
rotatemediacontest.win
incashwetrust.biz
brimamodels.eu
mbetswivelplay.top
kazinoalfa.info
kinospartak.smotrim1080.biz
adwordsoptimization.space
mbetrotatesitout.top
mosttbetfay8.xyz
www.mbetalive.win
ruflix.pro
yeyeyeprofit.website
1bonussloti.info
www.hot.video.az
zee-tv.zfilm-zfilm.club
google.hdreactor.club
foshlut.dualog.go.kg
hd-kinopik.zfilm-film.cyou
hd1.lordfilm-tnt.site
goldencomics.live
8.thro.bz
rotatemediaupset.win
www.prasinidomisi.gr
refpabjptn.top
hd-megamult.vseseriipodriad-z.site
piaseczno.flagma.pl
zhinka-hd.xyz
rotaambetplay.top
hdhouse.club
v.lordfilm.host
mbetrotatehurt.top
yaporn.love
admiralklub.co
profitpar.top
gaz-stop.site
magento2.sql.hdreactor.in
nnmclub5toro7u65.onion.to
vwdvxntgcs.host
refpaarfui.top
drift.casino-play.online
xn----7sbbdrdrzdvligmit9l.xn--p1ai
mirror594.graniru.info
www.bbsport2018.co
onlinebashnya.xyz
mosttbeet09.xyz
griffiny.hdrezka-116.site
refpaalrlz.top
mostbet777bonu1s.xyz
tops-casinos.site
forumcam.top
kinogoby.be
slotobet.vip
kama.yaladir.video.az
chernigiv.top
v.lordf1lm.space
tojbet.tj
abeskitchen.org
mirror321.graniru.info
bobsburgers.baskino-531.site
refpawvrqi.top
carder.one
2tty.hdreactor.club
refpazehms.space
trackbet3.xyz
alfabroker.trade
hd9.kinoshki1080.club
rotabmbetdeal.top
s94871662.newtorrent.rip
lamafilm.zfilm-hd777.monster
xn--d1acijsfhgmc.xn--p1ai
thebestintimservices.club
test.httpswww.hdreactor.in
mosstbmt.xyz
azartplau.club
generalfilm.ml
777.bonus-casinoa.info
mostbetprilend31.xyz
tizam.live
rotatemediadebut.win
eufinwide.site
books.megaresheba.site
liternet.pl
qnwwe.mosnes.info
www.buro247.video.az
rutv.stream
hd-kinopik.gov-bac-t.top
easy.tartugi.info
churnmediaplay.win
kzpost.info
rip1.ultradox.info
recacor.es
refpablhps.top
042009.torbaza.club
courseupload.tk
www.lokbatan.video.az
blog.blog.magento2.mysql.hdreactor.in
s3262010543.newtorrent.rip
momtubeporn.xxx
rotatememberplay.win
diplommshop.shop
bet24w.info
b.bestseeds3.live
mossstba9tlt.xyz
thecatalogue.pro
refpazzazg.top
diplomshopss.shop
leanonmediaplay.win
widem24x7.tk
maxkinox.xyz
nevelsk.doc-avto.info
boutir.store
rotatesystemplay.win
hd-tabfilm29.zagonka-1368.cyou
lindaxagoldline.skynell.biz
tchaikovskiy.info
prostitutkikemerovoshe.info
refpakoqjd.top
202005.sinema.top
www.mayanfortunecasino.eu
rotabmbetfeel.top
nytva.prava-zdes.org
www.high-stone-forum.biz
rotatemediaask.win
orka-88-kazino-bonus-za-registraciyu.azinodekos.info
yughno-sahalinsk.prostitutki.store
rotatesectorplay.win
007.video.az
refpagsvsi.top
casinoonlinesa.co.za
rotacmbetopen.site
www.casinofiz.co
rotagmbetbook.site
schetchick-gaza-pult.site
zhutelu.rosfirm.info
mbetrotatethrow.top
vulkan-igrovoy.club
viptrade.biz
refpasvcjo.top
www.mkiraz-mevsimi.video.az
www.bkbet.top
filmix.io
refpalmhin.top
refpauhhee.top
samara3.hotxxx.info
vkluchitv24.org
tooelrines.top
www.startrip.cz
moosttbet0xcl51.xyz
s1357455626.torrent-tracker.pro
refpaidilg.top
www.givememymarathon.win
tpbay.win
the.nun.video.az
kz.hdreactor.club
ibonusl.info
www.vegyelgep.bme.hu
driftmediaplay.win
sunblxi.blog.fc2blog.us
tnt-online.zfilm-hd-731.cyou
vid1570261084930.tehranvd.biz
v4.hdreactor.in
bz.hdreactor.club
hdd-hd.baskino-1359.site
flagma.pl
sex1.sexvl.club
ganjaseeds.org
sserial.zfilm-hd-1136.online
hyd2.tor-rc.space
s1357460034.newtracker.rip
meymunlar.planeti.video.az
mosttbet03.xyz
sprav-ca.co
ohthisistraff.website
mirror288.graniru.info
mosttbeet015.xyz
prostitutkiivanovosex.date
kino-ussr.zagonka-2423.site
www.alljb.eu
sex.video.az
lordsfilm.online
serialpoisk.zfilm-hd-1287.club
www.budbuddy.biz
v11.hdreactor.club
lords-filmz1.lordsfilm3.club
fixiki.hd-lostfilm.site
www.pk.video.az
rotatemediashoot.win
arlevel.info
speed-shop.biz
classes.mattcole.us
inmemories.info
hd-rebzi.zhd.life
mirror214.graniru.info
hd.ebalovo.porn
kino-more.online
refpaendoi.top
spb.intimatlas.in
mosttbeet042.xyz
s1357455626.newtracker.rip
rotatejournalistplay.win
lordfilms-s.zfilm-hd-451.online
honeyselectcreators.blogs.allthefallen.moe
rotabmbetjumper.top
date.bluesystem.world
litecred.biz
cinema5.zhd.life
www.bbsports.life
rutor.market
cinematext.hdrezka-2687.site
mirror02.mirrorolimp.site
refpakidug.top
azart.plus
me.zhinka-hd.xyz
mirror2.olimp24x7.online
mbetrotatesign.top
s1595444958.newtracker.rip
vulclub.bet
skynews.club
pizzas2plus.site
nizhnevartovsk.online-snus.site
piratebay.group
hd-online-lostfilm.zagonka-1368.club
opencard.us
tor4.us
matchmatchzalil.website
prostitutki-moskvy.site
api1627851768.tobaco.ws
chernoezerkalo.hd-lostfilm.site
privat.magnit-market.club
hq.bobfilm1.site
slotsoft.eu
goldencomics.club
www.supernatural.video.az
www.bbplay2017.online
xn-----6kcbgbjnac8ab8bpa4bdhdter8g0jla.xn--p1ai
mbetrotatetry.top
rutor.onion.ws
videomuzik.biz
kurtlar-vadisi.video.az
avtomatu.top
www.dndnha.website
platform.hdreactor.club
maxbet.io
g.lordssfilm.life
v11.hdreactor.in
refpagtcni.top
scattermediaplay.win
720.lamafilm-hd.space
rusdoc.shop
2020.lordsfilms-1080.top
ray-light.info
staging.hdreactor.club
rotabmbetadvance.top
spravki.click
vulkan-bet-online.biz
www.kinogo.kz
refpaqfriv.top
vpn.mega-7km.com.ua
shark777.biz.klad24.shop
www.pitbull.video.az
rf.diplom-room.biz
chickenbox.vn
qwerty.hd-lostfilm.site
www.gobetsmarathon.win
xn--o1ab.hdreactor.club
mostbattc.xyz
rotatemediabat.win
fixmediaplay.win
www.24open.club
kino-2020.fun
blog.dev.login.hdreactor.club
grot24.biz
photo06a.kset.kz
qwerty.hdrezka-116.site
xn----7sbaub8bejqt3bc9i.xn--p1ai
unblocksites.co
56544cvg6hj89.8969430.xyz
jucuq.top
kinorai.space
1080.lamafilm-hd.monster
mbetrotateremain.top
kinoprokat.tech
blog.info1.hdreactor.in
hd-torrentinka.kinogo.gay
volcano-club-games.top
sravniotzyvy.club
smena-kino.zfilm-hd-646.online
www.kqg.video.az
refpaduolc.top
rotatemedianine.win
the-umbrella-academy.zfilm-hd1.icu
kino-hd720-hd.site
kinogo.unblockweb.biz
mirror-1.zapretno.info
kino-krad.club
refpapobsw.top
novosibirsk-snus-kupit.site
mostbetprilend45.xyz
filmyiserialy.space
rotabmbethappen.top
megamult.hdrezka-1406.site
mbetswimplay.top
sport-bk.site
s1607844327.newtorrent.rip
11.hdreactor.in
rotatemediahomerun.win
rotafmbetturn.site
rotatemediaspend.win
pachka.biz
rotabmbetvictory.top
www.ld50.hu
9.hdreactor.in
slotvkasino.info
rotabmbetit.top
proxy.flibusta.site
casino777winj.info
1000vkazino.info
www.peyser.video.az
8aaf5c.olimp698b.top
www.luckyclub.eu
refpaghugo.top
rotafmbetspeak.site
az.fi.video.az
vuz-info.site
naturecd.top
