kinopoisk.zagonka-1368.cyou
breaking-bad-online.hdrezka-1406.site
tetefrag.sblo.jp
rutor.theproxy.ws
grabmediaplay.win
mostbbat27.xyz
h.lordssfilm.life
0fbzpep60.january.mobi.bkfind.club
huawei-euroshop.site
medspravka-himki.top
tredid.win
imbetplayluck.top
barney.u407.indigo.elastictech.org
kinosimka.oneproxy.org
taganrog.cf
rotatemediawant.win
brplus.info
lyubojkazino.info
eusynth.org
mirror343.graniru.info
equestriangirls.blogs.allthefallen.moe
seriyka.club
hd1.kinogo.win
rotatemediapitch.win
www.vobhod.biz
zytely.info
1alkoray.club
azinoeqpupcasino.info
mosttbeet018.xyz
mstream.space
porno-tour.xxx
slotomaniya.ru.
bk2019q.info
www.baltgames2018.club
vlmi.io
rotatemediaknow.win
animestars.lamafilm.top
ambarcinema.lostfilmhd.site
phreaker.pro
refpaghsxn.top
www.canadiancasinos.ca
blog.store.biz.hdreactor.club
rabotadropom.website
refpahsns.top
rotabmbetgoal.top
griffiny.gov-bbs-y.top
xn----otbbagee3anqij4i.xn--p1ai
mos8tbatlt.xyz
shlrka-bomba.site
www.john-mass.org
multiki.zfilm-hd-628.online
yaroslavl-online-snus.site
z1.hdreactor.club
kiev.ukraines.news
refpaogllk.top
rotabmbetremember.top
720.zhd.life
v5.hdreactor.club
onlinemultfilmy.hd-lostfilm.site
720.gidonline-964.site
cnt.hdreactor.club
domsbita.co
lux174.biz
mbetplaywinworld.top
hangl.cognis.ltd.ua
vid1568896511089.tehranvd.biz
megazalil.website
rotabmbetfeature.top
www.xn-----7kcgadnin5ctdfwn5a5gwb4i.xn--p1ai
www.seeds-gallery.shop
refpawkrqxrj.top
hd.knvd-hd.xyz
casino-top.by
refpashkxa.top
refpaxbjtl.top
goal.web.betsbc.club
magento.hdhouse.club
prostitutki-v-chelyabinske.date
serpuhov.mifepristone-apteka.info
nextmbetplaywin.top
rotatembetcall.win
www.mp4.video.az
moretticulturaeros.com.ar
sbd603.hdreactor.club
oylebirgecerzamanki.video.az
rotagmbetboot.site
fafkajofj654654.doorblog.jp
refpawnimd.top
newserial.hdrezka-749.site
1porno.video
mr-info.in.ua
17.video.az
a.cheki-russia.site
pornobomba.life
45.hdhouse.club
blog.13.hdreactor.club
ufa-snus-kupit.site
rotabmbetone.top
kinozoom.zfilm-zfilm.club
hqacd.site
newseries.zfilm-hd1.icu
rotatecourtplay.win
refpayemdn.top
ru.kupit-prava-777.club
docs.hdreactor.club
rotatemediaendup.win
hd-vashdosug.zfilm-film.club
rotabmbetwalk.top
faserial.club
rutor.123proxy.biz
med-knizhki.co
hd-online-lostfilm.zfilm-hd-720.cyou
refpayzejj.top
api1623474432.tobaco.ws
x18.czx.to
mega-mult.hd-lostfilm.site
xn--c1azcgcc.xn----7sbhvkwgbhn.xn--p1ai
i777slot.info
malchiki-po-vyzovu.world
video.kinohold.club
www.sporrtbox.video.az
720-720.gov-bac-t.top
igroutka.zfilm-zfilm.club
www.kuzey-gunwy.video.az
melbetkazino.info
soccer.m.betsbc.space
mirror310.graniru.info
thaitv.info
mbetrotatemusic.top
blog.access.hdreactor.in
podsos.top
maramymedia.win
30.30a.kinocraft.org
play-game-vulcan.vip
azartplay.co
play2wincasinos.co
kazinochechnya.info
splitmediaplay.win
ambarcinema.zhd.life
filmhd.onlayn.club
grimm-serial.zfilm-hd1.icu
ligakino.zfilm-hd-1577.online
baskino.zfilm-russia.club
sextagil.vip
www.getmarathonbet.win
rotatemediadefense.win
dev.vpn.hdreactor.club
cdn10.video.az
pokerdoma.ws
x19.czx.to
www.baltplay2017.live
dc.lostfilm-hd-3012.site
olimpaccessmirror.olimp.site
www.melonbooks.co.jp
refpadhiwz.top
www.recep-ivedik.video.az
only-hd.online
forummg.info
fanta24.biz
fkoelffs.online
mbetrotatekind.top
cpravca.co
refpamhktn.top
x8.czx.to
turabu.xyz
1plus1tv.lamafilm.top
kinoxa.biz
ru.lordfilms.biz
5.thro.bz
easyporn.xxx
havembetbest.top
mbetrotateinvolve.top
refpaonbxh.top
vek.life
www.kuze4y-guney.video.az
rus.diplom-r.info
vulkan24lmtupcasino.info
kino-o-voine.fast-torrent-1080.buzz
moveupmediaplay.win
rotatebankplay.win
1plus1tv.gov-ceb-t.top
kaliningrad.prostitutki24.casa
procrd.biz
lamafilm.lamafilm-720.top
www.ftrue-fetective.video.az
mostbbat14.xyz
static.flibusta.site
hd-tlgrm.lamafilm.top
bonusobzor.site
megamult.zfilm-hd-3030.online
xn----7sbahi2bxac1afbe7n.xn--p1ai
24porno.city
www.gtbets.eu
warmupmediaplay.win
www.fonbet.bid
kinoonline.in
magazinhydra.club
refpazdhba.top
rotaambetuse.top
www.freecomics.xxx
refpattxmk.top
cazino-vulcanstars.co
refpaaogco.space
kstati.top
mosttbeet08.xyz
shops.peptits.shop
mirror173.graniru.info
mirror25.graniru.info
hdmovie.live
www.oyydessa.video.az
spark.zfilm-hd-1863.online
mirror401.graniru.info
sporadiko.gr
lesbo.looo.ch
720hdhd-lostfilm.lostfilm-hd-2251.site
refpaxgvie.top
mostbbat70.xyz
globustv.site
metairiedepreles.ch
www.0-ses-turiye.video.az
fixiki.2zfilm-hd.life
x2rmebt.site
kinoboom.life
fastworks.top
azartpartners.top
15.hdreactor.club
v112.hdreactor.in
moelconcept.pt
russia.hdrezka-2845.site
rotatembetcoach.win
megamult.hdrezka-1935.site
refpaqcod.top
upcasinortmmvulkan24.info
med-ukraine.info
refpagtq.host
rotacmbetfail.site
play-wgcazino.club
crystalslot.vip
www.sarkisozum.gen.tr
fuck.intorrents.buzz
epidemz.net.co
casino777wind.info
onlineprestige-vulkan.vip
hd-online.kinogo-hd.icu
sserial.lostfilm-hd-1679.site
sbd417.hdreactor.club
film1.kinoteatr.stream
test.kino.video.az
madagascarkino.zfilmhd.icu
portal.hdreactor.club
rotatemediainvolve.win
refpajzuvh.top
mosspravka7.info
v21.hdhouse.club
niceboat-http.win
refpaqcmuz.top
sbd314.hdreactor.club
mos-kino.vseseriipodriad.site
dahserial.lostfilm-hd-3012.site
www.pumafilm-1080.top
refpaempgn.top
mahachkala-kupit-snus.site
mostbbat8.xyz
x.sportmagaz.click
www.smartsmoker.club
kucuk-aga.video.az
kenokazino.info
cacne.club
azinoxycupcasino.info
1plus1tv.gov-bbv-c.top
rotategroupplay.win
efsgnie.kinoco.in
mbetrotatescene.top
blog.es.hdreactor.club
img.avba.us
refpagrukq.top
www.httpswww.hdreactor.club
vulkan24twqupcasino.info
hd-novye-multiki.zfilm-hd.gay
vulkanclubtntupcasino.info
www.supernova.im
space.gerki.ws
s94722100.newtorrent.rip
mosstbms.xyz
www.new-rutor.org.new-rutor.org
ssl.hdreactor.club
rotatedelegateplay.win
balkanfarm.kz
chemfeeds.space
mostbet777b82onus.xyz
rpc67.go2me.top
vulkan24wauupcasino.info
ohthisisprofit.website
refpawyzsi.top
www.vidoe.top
osagoblank.site
refpavecgr.top
v62.hdreactor.club
snus-online-msk.site
derslikler.video.az
perm.sexros.biz
homehq.top
refpaonwtl.top
casinofiz.co
alko-ray.shop
rotatemediaserve.win
mosttbetcl35.xyz
zfilme1-hd.site
y.hdreactor.club
r.100-spravok.pro
mosstbw.xyz
rotacmbetthink.site
prostitutkiekaterinburgagood.org
17.hdreactor.club
l.kino-hdzo.club
slot-v-casinoe.club
lordcourse.club
rotateemployerplay.win
rotatechineseplay.win
detskie-multiki.zfilm-hd.site
c.kinotok.info
casino-ua.info
horoshiyenews.info
h.hdreactor.club
login.hdreactor.in
refpahukgh.top
rotatemediafive.win
rotatemediabattle.win
mosttbet040.xyz
poker-dom.poker
uralklad.biz
emptymediaplay.win
mbetrotatedie.top
mostbelm.xyz
kazinotallin.info
www.cinqayet.video.az
onlinemultfilmy.kinokrad-hd.top
kinosimka.unblocked2.vip
worldwide.video.az
slots-max.club
x.profarm.store
www.paramparca.video.az
hd-zona.zfilm-hd-731.cyou
www.spogtbox.video.az
qwerty.gov-ceb-t.top
hd-russkaja-skazka44.lamafilm.top
sochi-kupit-snus.site
gm-s1ots.top
ntvplus.zfilm-1080.cyou
lasilky.org
m18.skladchina.biz
www.dragons.video.az
warcinema.zfilme-hd1.site
v-c.click
refpagzvma.top
www.ayalolmezcom.video.az
torrentmiha.site
center-club.us
pd.socialgame.live
vid1568894021450.tehranvd.biz
s2.hdlord.site
nordex.bio
bordcash.link
www.refinancesandiego.org
blog.catback.vn
www.compromat.org
turkish-tv-series.zfilm-hd.gay
locams.al
redslit.vip
www.kurtlar-vadlsi-pusu.video.az
ecologicnorway.no
horoshiy-vkus.biz.ua
gitelu.rosfirm.info
infoseif.world
nyan-nyan-times.doorblog.jp
www.rudok.co
tube.box.tj
www.edu.video.az
blog.old.community-2.hdreactor.in
stavki-na-cybersport.club
vse-chasti-filmov.site
rotatescholarplay.win
sxemykazino.info
mbetrotatehappen.top
mamochki.info
big.fllm.kinobaza.site
www.betcity-nbfj.space
obn.al
medknigii-novosibirska.top
m.kinosmart.club
gorizontcinema.gov-bac-t.top
mp3.radio.lol
darkmag.click
metod-serial.kinogo-hd.icu
dahserial.hd-lostfilm.site
lkazinoio.info
air.pm-564.info
s2995606762.newtorrent.rip
refpaedpfl.space
720-hd-hd.hd-lostfilm.site
blog.old.community.hdreactor.in
vedomosti.zfilm-zfilm.club
v.serialitut.bid
refpaswrlt.top
www.veu.xxx
phreaker.us
kazinossha.info
www.gidonline.website
lordfilm.studio
www.ladbrokes.com.au
mostbetprilend24.xyz
neodimof7.club
xn--q1a.xn--7-9sbdy1aarccvh.xn--p1acf
blog.xn--c1acul2c.hdreactor.in
8543.svetacdn.in
karusel-tv.hdrezka-870.site
moosttbet0xcl55.xyz
az.hdreactor.club
www.zenitbet146.win
cprawki.co
arkadia-holding.eu
dominio.hdreactor.in
animalia-life.club
btdb.eu
allroulette.info
refpaaboee.top
hotmovies.ws
www.uhtube.biz
mostbetprilend19.xyz
vid1569753124051.tehranvd.biz
blissklad.biz
www.childpsych.co.za
neodim24e.club
www.betformrth.win
rotateworldplay.win
recedemediaplay.win
jammediaplay.win
darknet.video
vid1568897187525.tehranvd.biz
www.unibet.ie
www.discovery.video.az
klub-vulkan.pro
prostitutkisergievposaddosug.info
minaki.es
refpaojyqu.top
mi.kinotraf.club
fragile.sakura.ne.jp
svoekino.zhd.life
refpakagsr.top
refpaopvvc.top
v61.hdreactor.club
heavemediaplay.win
healmediaplay.win
blog.citrix.hdreactor.club
refpavvbtc.top
mostbbat49.xyz
chernoezerkalo.zagonka-1144.site
moo4stoprilland.xyz
refpajbyge.top
toonpornpics.club
lamafilm-hd.buzz
vulkan777njiupcasino.info
rotabmbetdominate.top
www.kqe.video.az
refpahpihs.top
refpajgqsn.top
www.expertiza.org
www.deadpool.video.az
bestslotscasinos111.site
mostbetprilend53.xyz
spravka-company.club
blog.magento2.ci.hdreactor.club
1ixbet.world
kino.vg
md.legalizer.vip
lis121.co
tennisi.tj
vip-zal.tk
redstar.casino
m.megaresheba.site
win16.go2me.top
mail.basefilm.org
fullhd1.lordsfilms.top
mostbet777bo62nus.xyz
api1627905252.tobaco.ws
www.kiraz-mevismi.video.az
kinoby.online
kinogo.lordsfilms-720.monster
fms4.in
kinosmart.club
86.57.154.165
mirror342.graniru.info
vullcan-club.club
vid1569204374268.tehranvd.biz
izhevsk-online-snus.site
ordonate.org
prava.monster
www.v9.hdreactor.in
mxhack.host
rotacmbetstuff.site
www.bettingodds.biz
theuk.one
cug.biz.pl
porno-dojki.red
azinocexupcasino.info
83.tvmovies.in
refpapwmmm.top
teddygirl.top
www.520365.tw
x.hdreactor.club
zaliv-card.site
2.kinohoyytr1.site
mirror350.graniru.info
refpadzoxc.top
dev.3.hdreactor.in
nds-partner.club
mail.anilost.site
rofit.co
time.win-now.co
b892c4.olimpa0c1.top
refpatqbih.top
rotatemediateam.win
lah.li
mail-video.cf
www.jtube.space
xn--e1amfe.hdreactor.in
fixik.zhd.life
casino-co.club
www.kurtlar-vadisi-0pusu.video.az
opcash.pro
reduksin.info
refpaadrxm.top
griffiny.zfilm-hd-719.online
nomer-org.org
allbacco.biz
serializm.zhd.life
www.betstar.com.au
kinodom.top
pma.meet.hdreactor.in
bluray720.zfilm-hd1.icu
g21-lord.lordfilm.wine
www.turkce-izle.video.az
www.parapmarca.video.az
blog.7magento.community.hdreactor.in
stavkicazinoc.info
k.via-shop.website
s1607844299.protorrent.pro
www.true-detecthive.video.az
films.az
refpawrhff.top
xn--k1af.hdreactor.in
chernoezerkalo.zfilm-hd.site
ono.2.video.az
v22.hdreactor.club
refpapwgaf.top
glasscapes.space
hpp.video.az
youmbetplayluck.top
simpsons-fan.hdrezka-2697.site
tv.hdgo.site
tarsik.blogspot.be
xn-80a.hdreactor.club
files.hdreactor.club
f2.1080hd7.online
slotclubcasino.co
rotatetouristplay.win
www.goandplay1.club
hd-lostfilm-hd.zfilm-kazakhstan.cyou
www.kuzeyj-guney.video.az
hqtube.xxx
96.hdreactor.club
www.sellmore.no
my-serials.info
an-gry.dreamwidth.org
refpamhlnn.top
pevek.doc-avto.life
newseries.zfilm-hd-242.online
perm.prostitutki.surf
kino-hd.lostfilm.in
xayalolmezrejissor.video.az
mosstbetd.xyz
c.brutal-market.top
www.grandgames.be
tp0312.in.ua
s1588970507.newtorrent.rip
refpauxvvh.top
covid19.kinogo-hd.icu
fermedefrocourt.be
www.7sultans.eu
zetflix.zfilm-hd-950.online
mirror483.graniru.info
www.pokerstars.be
202005.monna.top
www.wpsab.ca
b.animal-farma.in
fullhd1.lamafilm.top
bteu.org
rotatemediaact.win
bakuws.video.az
bit.tube
www.musicvideos.bid
kazinoandroid.info
vulkanklub1.co
www.lordfilms.website
2020-kino.fun
7.hdhouse.club
hurtlemediaplay.win
4ertik.space
blog.xn--80a2a.hdreactor.in
c.darsex.club
www.fewo-flegel.at
rotacmbethave.site
x-film.zhd.life
coolmbetplaywin.top
svoekino.zfilm-hd-2978.online
mbetrotatestay.top
sdelaysam.selo.live
www.vistabet.gr
carders.ug
refparztvn.top
refpaxlkrp.top
www.casino-top.top
detskie-multiki.rezka.icu
uwasa.minibird.jp
youtubetomp3.world
tpb.one
ukrpost.biz
z.httpswww.hdreactor.club
www.kurtlar-vaduusi-pusu.video.az
gf4.club
argumentua.life
volgograd.dublikatprav.top
cn.xero.porn
doramatv.zhd.life
lostfilm-hd-595.site
addcred.org
diplom24.info
refpakcdcu.site
www.lis3.ga
rotatemedialive.win
refpargwvx.top
ru.leonbets.pw
rotatecrowdplay.win
www.torrentino.download
granada.flagma.es
once.upon.video.az
shop.3.hdreactor.in
gunesi-beklerken.video.az
refpalpabx.top
angelbags.vip
kinoman.top
ah24.vip
refpatymdy.top
lotorukazino.info
fooo.hdrezka-870.site
hdd-tv.zagonka-2423.site
rpc87.go2me.top
lostfilm-online.zfilm-720.cyou
mosstbmw.xyz
s1588969488.newtracker.rip
www.zenitbet121.win
hd-zorox.lamafilm.top
mosttbetfanx1.xyz
mbetrotategive.top
www.sskurtlar-vadusi-pusu.video.az
chita.kupit-snus.site
xn--2-7sbagbdpv5bpes5ad1ki.xn--80asehdb
32.svetacdn.in
teletos.online
0www.odessa.video.az
fivekop.top
diploman-shop.ltd
mostbet777bonu19s.xyz
720-hd.lamafilm.top
intim116.club
ozpp.site
refparobqs.top
rus.a-diplom.one
refpasjldv.top
www.myhappymarathonbet.win
brandbase.work
rikakazino.info
refpatdili.top
mbetrotatecase.top
zapretno.info
refpaartla.top
www.kurtlafr-vadisi-pusu.video.az
www.kotuyol.video.az
vhfkg.site
atleticpharm.one
kinovirus1.club
www.kazpravda.kz
rospres.top
refpaikcun.top
blog.87k.hdreactor.in
mosttbet022.xyz
rotateresidentplay.win
kinosotik.zfilm-zfilm.club
rudoc.co
hd-tagline28.kinokrad-hd.cyou
refpaqagri.top
kazinoben.info
s3114770515.newtorrent.rip
puaro-online.zfilm-hd777.monster
lostfilm-hd-1436.online
gov14.go2me.top
rutor.torrs.xyz
moskva-prava.space
verymbetplaywin.top
w.zfilm-hd-628.online
178.32.209.201
rostov.prostitutki.fit
magniteco.kz
ibrahimov.video.az
www.gurze.video.az
moosttbet035.xyz
almostr.top
rotabmbetskate.top
blog.xn--d1an6c.hdreactor.in
inbet24.club
v3.hdreactor.in
rotatemediaallow.win
mossstba4tlt.xyz
klasskazino.info
kazinoplatina.info
lineika.xyz
upcasinouhmvulkan888.info
s9.lostfilmtv.best
littlesisterinvitations.com.au
casino.betus.com.pa
udostoverenie.store
muz.lordserial.co
idtikazino.info
total-under.site
torrentom.siteunblocked.lol
www.walterfried.pl
rotatemediaconsider.win
mostbatrt.xyz
24ls.biz
refpakkgec.top
www.titanbet.es
mossst8batlt.xyz
m.okcs.video.az
50www.hdreactor.in
kazinokadula.info
www.jokerfarma.vip
refpayevpw.top
mw.hdreactor.in
ru24tv.website
mosstbets.xyz
chorkom.info
720-coldfilm.hdkino.biz
russ.prava-vsem.info
pornocomix.site
sept16.lostfilm.lol
rf.kupitdiplomvyshee.club
bannedavtonom.noblogs.org
www.mi.video.az
jco7.org
refpafuduf.top
a3.hdreactor.in
blog.6.hdreactor.club
privatecollections.ca
www.parampartca.video.az
kazinofrank.info
rotagmbetboard.site
xn--d1ab2abgi.xn--c1avg
rotatemediahomer.win
refpaegjqq.top
refparshck.top
rotatesportplay.win
rotatemediawalk.win
snezhinsk.prostitutki24.city
prostitutkitambovaonline.info
vzamazke.xyz
5board.ksivi.bz
freebonusy.info
www.filmix.co
refpaxsjpk.top
rotatemediaperformance.win
rofitmark.top
staging.cp.hdreactor.club
eeeee.biz
red.ribbon.to
cas.d23a83.olimpa0c1.top
medspravki-sochi.top
griffiny.zfilmhd.icu
usafastproxy.info
ijgbz.site
ftp-khujand.tj
www.ura-akiba.jp
xn--1-mtb.hdreactor.club
sbd687.hdreactor.club
leastk.top
magento.intranet.hdreactor.in
mbetrotateface.top
corleone2.site
refparkejr.top
iris-soft.jp
maraadrotate.win
refpagorpd.top
serial.zagonka-2152.site
mosttbet032.xyz
doramy.gov-ceb-t.top
x1.kinoxa.biz
kickass.unblockit.top
720-hd.lordsfilms.top
ofx8.xyz
todaypost.in.ua
mosttbeet043.xyz
s634793781.newtorrent.rip
b.businesobraz.club
lostfilm.lostfilm-hd-409.site
rotatemediaversion.win
reporthi.top
cpdpk.pw
mossstba3tlt.xyz
refpahrwra.top
kinopik.lordfilms-s-777.site
www.bk-betcity.top
refpaerh.host
www.baltbet7.club
www.springbokcasino.co.za
hotmbetplayluck.top
gov39.go2me.top
rotabmbetenter.top
downtonabbeyserial.pumafilm-1080.monster
hd-lamafilm.lamafilm.top
www.diaspoa.video.az
s6.ifotos.pl
son.video.az
relaxportal.biz
manufacturingcommunity.agoria.be
opencard.top
diablo3info.org
snapmediaplay.win
schetchikgaza-pult.site
rutordeepkpafpudl22pbbhzm4llbgncunvgcc66kax55sc4mp4kxcid.onion.ws
w32.torlook.info
sbd824.hdreactor.club
fr.unibet.be
cart.hdreactor.club
www.spordtbox.video.az
mbetrotatesong.top
dosugcx-ufa.info
refpasonyl.top
play-club-vulkan.kz
privacyplaza.co
302004.sinema.top
staryj-osk.ol-l.prava-online.org
blog.x.hdreactor.in
rotabmbetportray.top
2133.svetacdn.in
www.baltgames2018.xyz
iwu.gogo.film
mirror433.graniru.info
hd-multfilms.zfilm-ukraine.club
shop.cpanel.hdreactor.club
cdn4.video.az
test.cpanel.hdreactor.club
meymunlarin.qiyami.video.az
a9.4rdr.top
hd-pornofilmi.zfilm-1080.cyou
ryefs.kinoco.in
bitmbetplayluck.top
kursk.
rutracker.eu.org
betgmsdeluxe.one
old.community.hdreactor.in
ua.odfoundation.eu
kinogood.zagonka-1144.site
test.us.hdreactor.club
z.online-hd720p.club
ufa-tut.bez-avtoshkoly.site
ht1.hdreactor.club
rssnews.in.ua
medcannabis.info
seriesvar.ga
gerki.in
www.playerspalacecasino.eu
n.ssvisiontv.video.az
qwerty.lordsfilms-1080.top
ivi.fast-torrent-hd.monster
www.visiontv.video.az
mirror113.graniru.info
refpawvrag.top
semerochkacasino.info
www.mbethappy.win
lamafilm.lamafilm.top
jitelu.rosfirm.info
izhevsk.prostitutki.host
32.tvmovies.in
rotaembethug.site
lordfilm.movie
kino-kadr.lostfilm-hd-1359.site
refpalbqdj.top
182005.monna.top
sexypics.red
refpapcxfd.top
mysql.v21.hdreactor.in
rotatemediachange.win
diplomy-v-ekb.ru.
my.lostfilmtv.vip
www.mbkbetting.win
hd-movielib.zhd.life
mostbet777bo36nus.xyz
www.americanhorrorstory.video.az
ruhlar.bolgesi.video.az
azino888gywupcasino.info
a4.4rdr.top
www.sportsfullhd.video.az
www.bookies.com.au
www.web.odessa.video.az
rotabmbetcomeback.top
mosttbeet022.xyz
refpaqiqkm.top
torrentom.unblocked2.top
hd-onl.lordsfilms-720.top
f17.hdmax.live
hd-spbtvonline33.zhd.life
film720p.hd-1080.live
jk.hdreactor.club
lolibooru.moe
multiki.zfilm-hd-2356.online
kazinokarat.info
casino.bwin.gr
vulcanvegas.site
mbetsplitplay.top
1games.biz
kazinorot.info
moosttbetxcl8.xyz
1plus1tv.lordsfilms-720.top
ss.kset.kz
moosttbet0xcl34.xyz
www.coolmymarathon.win
b.indiufa.live
www.yok-boyle-dans.video.az
filmshouse.gov-bqn-h.top
55.hdreactor.in
47.tvmovies.in
www.baltplay2018.info
superklad.2rc.biz
shop.pma.hdreactor.club
extraporno.love
spbdosug.club
vulkan777xzbupcasino.info
kazino.click
rotatepoliceplay.win
www.ww.hdreactor.club
pokerdom-online.co
eldo-club.co
online.x-film.site
rotatemediamovie.win
